{
  "extends": ["tslint:recommended"],
  "rules": {
    "quotemark": [true, "single", "avoid-escape", "jsx-double"],
    "no-empty-interface": true,
    "no-namespace": true,
    "no-eval": true,
    "no-var-keyword": true,
    "radix": false,
    "triple-equals": true,
    "class-name": true,
    "no-angle-bracket-type-assertion": true,
    "semicolon": [true, "always"],
    "no-default-export": false,
    "switch-default": false,
    "no-construct": true,
    "trailing-comma": [false],
    "whitespace": [false],
    "member-ordering": [true],
    "no-unused-expression": true,
    "jsx-no-multiline-js": false,
    "jsx-no-lambda": false,
    "no-object-literal-type-assertion": false,
    "interface-name": ["never-prefix"],
    "only-arrow-functions": [
      "allow-named-functions",
      "allow-declarations"
    ],
    "object-literal-sort-keys": false,
    "no-var-requires": false
  }
}